[
  {
    "directory": "/home/robin/dev/vulkan-pipelines/build",
    "command": "cc -Ivulkan.p -I. -I.. -I../3rdparty -I../src -I../subprojects/VulkanMemoryAllocator-3.0.1/include -I/usr/include/SDL2 -I/usr/include/freetype2 -I/usr/include/libpng16 -I/usr/include/harfbuzz -I/usr/include/glib-2.0 -I/usr/lib/glib-2.0/include -I/usr/include/sysprof-6 -fdiagnostics-color=always -D_FILE_OFFSET_BITS=64 -Wall -Winvalid-pch -std=gnu99 -O0 -g -pthread -D_REENTRANT -Wno-switch -MD -MQ vulkan.p/src_main.c.o -MF vulkan.p/src_main.c.o.d -o vulkan.p/src_main.c.o -c ../src/main.c",
    "file": "../src/main.c",
    "output": "vulkan.p/src_main.c.o"
  },
  {
    "directory": "/home/robin/dev/vulkan-pipelines/build",
    "command": "cc -Ivulkan.p -I. -I.. -I../3rdparty -I../src -I../subprojects/VulkanMemoryAllocator-3.0.1/include -I/usr/include/SDL2 -I/usr/include/freetype2 -I/usr/include/libpng16 -I/usr/include/harfbuzz -I/usr/include/glib-2.0 -I/usr/lib/glib-2.0/include -I/usr/include/sysprof-6 -fdiagnostics-color=always -D_FILE_OFFSET_BITS=64 -Wall -Winvalid-pch -std=gnu99 -O0 -g -pthread -D_REENTRANT -Wno-switch -MD -MQ vulkan.p/src_camera.c.o -MF vulkan.p/src_camera.c.o.d -o vulkan.p/src_camera.c.o -c ../src/camera.c",
    "file": "../src/camera.c",
    "output": "vulkan.p/src_camera.c.o"
  },
  {
    "directory": "/home/robin/dev/vulkan-pipelines/build",
    "command": "cc -Ivulkan.p -I. -I.. -I../3rdparty -I../src -I../subprojects/VulkanMemoryAllocator-3.0.1/include -I/usr/include/SDL2 -I/usr/include/freetype2 -I/usr/include/libpng16 -I/usr/include/harfbuzz -I/usr/include/glib-2.0 -I/usr/lib/glib-2.0/include -I/usr/include/sysprof-6 -fdiagnostics-color=always -D_FILE_OFFSET_BITS=64 -Wall -Winvalid-pch -std=gnu99 -O0 -g -pthread -D_REENTRANT -Wno-switch -MD -MQ vulkan.p/src_vulkan.c.o -MF vulkan.p/src_vulkan.c.o.d -o vulkan.p/src_vulkan.c.o -c ../src/vulkan.c",
    "file": "../src/vulkan.c",
    "output": "vulkan.p/src_vulkan.c.o"
  },
  {
    "directory": "/home/robin/dev/vulkan-pipelines/build",
    "command": "cc -Ivulkan.p -I. -I.. -I../3rdparty -I../src -I../subprojects/VulkanMemoryAllocator-3.0.1/include -I/usr/include/SDL2 -I/usr/include/freetype2 -I/usr/include/libpng16 -I/usr/include/harfbuzz -I/usr/include/glib-2.0 -I/usr/lib/glib-2.0/include -I/usr/include/sysprof-6 -fdiagnostics-color=always -D_FILE_OFFSET_BITS=64 -Wall -Winvalid-pch -std=gnu99 -O0 -g -pthread -D_REENTRANT -Wno-switch -MD -MQ vulkan.p/src_input.c.o -MF vulkan.p/src_input.c.o.d -o vulkan.p/src_input.c.o -c ../src/input.c",
    "file": "../src/input.c",
    "output": "vulkan.p/src_input.c.o"
  },
  {
    "directory": "/home/robin/dev/vulkan-pipelines/build",
    "command": "cc -Ivulkan.p -I. -I.. -I../3rdparty -I../src -I../subprojects/VulkanMemoryAllocator-3.0.1/include -I/usr/include/SDL2 -I/usr/include/freetype2 -I/usr/include/libpng16 -I/usr/include/harfbuzz -I/usr/include/glib-2.0 -I/usr/lib/glib-2.0/include -I/usr/include/sysprof-6 -fdiagnostics-color=always -D_FILE_OFFSET_BITS=64 -Wall -Winvalid-pch -std=gnu99 -O0 -g -pthread -D_REENTRANT -Wno-switch -MD -MQ vulkan.p/src_sound.c.o -MF vulkan.p/src_sound.c.o.d -o vulkan.p/src_sound.c.o -c ../src/sound.c",
    "file": "../src/sound.c",
    "output": "vulkan.p/src_sound.c.o"
  },
  {
    "directory": "/home/robin/dev/vulkan-pipelines/build",
    "command": "cc -Ivulkan.p -I. -I.. -I../3rdparty -I../src -I../subprojects/VulkanMemoryAllocator-3.0.1/include -I/usr/include/SDL2 -I/usr/include/freetype2 -I/usr/include/libpng16 -I/usr/include/harfbuzz -I/usr/include/glib-2.0 -I/usr/lib/glib-2.0/include -I/usr/include/sysprof-6 -fdiagnostics-color=always -D_FILE_OFFSET_BITS=64 -Wall -Winvalid-pch -std=gnu99 -O0 -g -pthread -D_REENTRANT -Wno-switch -MD -MQ vulkan.p/src_renderer.c.o -MF vulkan.p/src_renderer.c.o.d -o vulkan.p/src_renderer.c.o -c ../src/renderer.c",
    "file": "../src/renderer.c",
    "output": "vulkan.p/src_renderer.c.o"
  },
  {
    "directory": "/home/robin/dev/vulkan-pipelines/build",
    "command": "cc -Ivulkan.p -I. -I.. -I../3rdparty -I../src -I../subprojects/VulkanMemoryAllocator-3.0.1/include -I/usr/include/SDL2 -I/usr/include/freetype2 -I/usr/include/libpng16 -I/usr/include/harfbuzz -I/usr/include/glib-2.0 -I/usr/lib/glib-2.0/include -I/usr/include/sysprof-6 -fdiagnostics-color=always -D_FILE_OFFSET_BITS=64 -Wall -Winvalid-pch -std=gnu99 -O0 -g -pthread -D_REENTRANT -Wno-switch -MD -MQ vulkan.p/src_physics.c.o -MF vulkan.p/src_physics.c.o.d -o vulkan.p/src_physics.c.o -c ../src/physics.c",
    "file": "../src/physics.c",
    "output": "vulkan.p/src_physics.c.o"
  },
  {
    "directory": "/home/robin/dev/vulkan-pipelines/build",
    "command": "cc -Ivulkan.p -I. -I.. -I../3rdparty -I../src -I../subprojects/VulkanMemoryAllocator-3.0.1/include -I/usr/include/SDL2 -I/usr/include/freetype2 -I/usr/include/libpng16 -I/usr/include/harfbuzz -I/usr/include/glib-2.0 -I/usr/lib/glib-2.0/include -I/usr/include/sysprof-6 -fdiagnostics-color=always -D_FILE_OFFSET_BITS=64 -Wall -Winvalid-pch -std=gnu99 -O0 -g -pthread -D_REENTRANT -Wno-switch -MD -MQ vulkan.p/src_convars.c.o -MF vulkan.p/src_convars.c.o.d -o vulkan.p/src_convars.c.o -c ../src/convars.c",
    "file": "../src/convars.c",
    "output": "vulkan.p/src_convars.c.o"
  },
  {
    "directory": "/home/robin/dev/vulkan-pipelines/build",
    "command": "cc -Ivulkan.p -I. -I.. -I../3rdparty -I../src -I../subprojects/VulkanMemoryAllocator-3.0.1/include -I/usr/include/SDL2 -I/usr/include/freetype2 -I/usr/include/libpng16 -I/usr/include/harfbuzz -I/usr/include/glib-2.0 -I/usr/lib/glib-2.0/include -I/usr/include/sysprof-6 -fdiagnostics-color=always -D_FILE_OFFSET_BITS=64 -Wall -Winvalid-pch -std=gnu99 -O0 -g -pthread -D_REENTRANT -Wno-switch -MD -MQ vulkan.p/src_window.c.o -MF vulkan.p/src_window.c.o.d -o vulkan.p/src_window.c.o -c ../src/window.c",
    "file": "../src/window.c",
    "output": "vulkan.p/src_window.c.o"
  },
  {
    "directory": "/home/robin/dev/vulkan-pipelines/build",
    "command": "cc -Ivulkan.p -I. -I.. -I../3rdparty -I../src -I../subprojects/VulkanMemoryAllocator-3.0.1/include -I/usr/include/SDL2 -I/usr/include/freetype2 -I/usr/include/libpng16 -I/usr/include/harfbuzz -I/usr/include/glib-2.0 -I/usr/lib/glib-2.0/include -I/usr/include/sysprof-6 -fdiagnostics-color=always -D_FILE_OFFSET_BITS=64 -Wall -Winvalid-pch -std=gnu99 -O0 -g -pthread -D_REENTRANT -Wno-switch -MD -MQ vulkan.p/src_gltf.c.o -MF vulkan.p/src_gltf.c.o.d -o vulkan.p/src_gltf.c.o -c ../src/gltf.c",
    "file": "../src/gltf.c",
    "output": "vulkan.p/src_gltf.c.o"
  },
  {
    "directory": "/home/robin/dev/vulkan-pipelines/build",
    "command": "cc -Ivulkan.p -I. -I.. -I../3rdparty -I../src -I../subprojects/VulkanMemoryAllocator-3.0.1/include -I/usr/include/SDL2 -I/usr/include/freetype2 -I/usr/include/libpng16 -I/usr/include/harfbuzz -I/usr/include/glib-2.0 -I/usr/lib/glib-2.0/include -I/usr/include/sysprof-6 -fdiagnostics-color=always -D_FILE_OFFSET_BITS=64 -Wall -Winvalid-pch -std=gnu99 -O0 -g -pthread -D_REENTRANT -Wno-switch -MD -MQ vulkan.p/src_networking.c.o -MF vulkan.p/src_networking.c.o.d -o vulkan.p/src_networking.c.o -c ../src/networking.c",
    "file": "../src/networking.c",
    "output": "vulkan.p/src_networking.c.o"
  },
  {
    "directory": "/home/robin/dev/vulkan-pipelines/build",
    "command": "cc -Ivulkan.p -I. -I.. -I../3rdparty -I../src -I../subprojects/VulkanMemoryAllocator-3.0.1/include -I/usr/include/SDL2 -I/usr/include/freetype2 -I/usr/include/libpng16 -I/usr/include/harfbuzz -I/usr/include/glib-2.0 -I/usr/lib/glib-2.0/include -I/usr/include/sysprof-6 -fdiagnostics-color=always -D_FILE_OFFSET_BITS=64 -Wall -Winvalid-pch -std=gnu99 -O0 -g -pthread -D_REENTRANT -Wno-switch -MD -MQ vulkan.p/src_actions.c.o -MF vulkan.p/src_actions.c.o.d -o vulkan.p/src_actions.c.o -c ../src/actions.c",
    "file": "../src/actions.c",
    "output": "vulkan.p/src_actions.c.o"
  },
  {
    "directory": "/home/robin/dev/vulkan-pipelines/build",
    "command": "c++ -Ivulkan.p -I. -I.. -I../3rdparty -I../src -I../subprojects/VulkanMemoryAllocator-3.0.1/include -I/usr/include/SDL2 -I/usr/include/freetype2 -I/usr/include/libpng16 -I/usr/include/harfbuzz -I/usr/include/glib-2.0 -I/usr/lib/glib-2.0/include -I/usr/include/sysprof-6 -fdiagnostics-color=always -D_FILE_OFFSET_BITS=64 -Wall -Winvalid-pch -std=c++17 -O0 -g -pthread -D_REENTRANT -MD -MQ vulkan.p/src_vk_alloc.cpp.o -MF vulkan.p/src_vk_alloc.cpp.o.d -o vulkan.p/src_vk_alloc.cpp.o -c ../src/vk_alloc.cpp",
    "file": "../src/vk_alloc.cpp",
    "output": "vulkan.p/src_vk_alloc.cpp.o"
  },
  {
    "directory": "/home/robin/dev/vulkan-pipelines/build",
    "command": "cc -Ivulkan.p -I. -I.. -I../3rdparty -I../src -I../subprojects/VulkanMemoryAllocator-3.0.1/include -I/usr/include/SDL2 -I/usr/include/freetype2 -I/usr/include/libpng16 -I/usr/include/harfbuzz -I/usr/include/glib-2.0 -I/usr/lib/glib-2.0/include -I/usr/include/sysprof-6 -fdiagnostics-color=always -D_FILE_OFFSET_BITS=64 -Wall -Winvalid-pch -std=gnu99 -O0 -g -pthread -D_REENTRANT -Wno-switch -MD -MQ vulkan.p/src_phases.c.o -MF vulkan.p/src_phases.c.o.d -o vulkan.p/src_phases.c.o -c ../src/phases.c",
    "file": "../src/phases.c",
    "output": "vulkan.p/src_phases.c.o"
  },
  {
    "directory": "/home/robin/dev/vulkan-pipelines/build",
    "command": "cc -Ivulkan.p -I. -I.. -I../3rdparty -I../src -I../subprojects/VulkanMemoryAllocator-3.0.1/include -I/usr/include/SDL2 -I/usr/include/freetype2 -I/usr/include/libpng16 -I/usr/include/harfbuzz -I/usr/include/glib-2.0 -I/usr/lib/glib-2.0/include -I/usr/include/sysprof-6 -fdiagnostics-color=always -D_FILE_OFFSET_BITS=64 -Wall -Winvalid-pch -std=gnu99 -O0 -g -pthread -D_REENTRANT -Wno-switch -MD -MQ vulkan.p/src_ui.c.o -MF vulkan.p/src_ui.c.o.d -o vulkan.p/src_ui.c.o -c ../src/ui.c",
    "file": "../src/ui.c",
    "output": "vulkan.p/src_ui.c.o"
  },
  {
    "directory": "/home/robin/dev/vulkan-pipelines/build",
    "command": "cc -Ivulkan.p -I. -I.. -I../3rdparty -I../src -I../subprojects/VulkanMemoryAllocator-3.0.1/include -I/usr/include/SDL2 -I/usr/include/freetype2 -I/usr/include/libpng16 -I/usr/include/harfbuzz -I/usr/include/glib-2.0 -I/usr/lib/glib-2.0/include -I/usr/include/sysprof-6 -fdiagnostics-color=always -D_FILE_OFFSET_BITS=64 -Wall -Winvalid-pch -std=gnu99 -O0 -g -pthread -D_REENTRANT -Wno-switch -MD -MQ vulkan.p/3rdparty_flecs.c.o -MF vulkan.p/3rdparty_flecs.c.o.d -o vulkan.p/3rdparty_flecs.c.o -c ../3rdparty/flecs.c",
    "file": "../3rdparty/flecs.c",
    "output": "vulkan.p/3rdparty_flecs.c.o"
  },
  {
    "directory": "/home/robin/dev/vulkan-pipelines/build",
    "command": "cc -Ivulkan.p -I. -I.. -I../3rdparty -I../src -I../subprojects/VulkanMemoryAllocator-3.0.1/include -I/usr/include/SDL2 -I/usr/include/freetype2 -I/usr/include/libpng16 -I/usr/include/harfbuzz -I/usr/include/glib-2.0 -I/usr/lib/glib-2.0/include -I/usr/include/sysprof-6 -fdiagnostics-color=always -D_FILE_OFFSET_BITS=64 -Wall -Winvalid-pch -std=gnu99 -O0 -g -pthread -D_REENTRANT -Wno-switch -MD -MQ vulkan.p/3rdparty_enet.c.o -MF vulkan.p/3rdparty_enet.c.o.d -o vulkan.p/3rdparty_enet.c.o -c ../3rdparty/enet.c",
    "file": "../3rdparty/enet.c",
    "output": "vulkan.p/3rdparty_enet.c.o"
  },
  {
    "directory": "/home/robin/dev/vulkan-pipelines/build",
    "command": "cc -Ivulkan.p -I. -I.. -I../3rdparty -I../src -I../subprojects/VulkanMemoryAllocator-3.0.1/include -I/usr/include/SDL2 -I/usr/include/freetype2 -I/usr/include/libpng16 -I/usr/include/harfbuzz -I/usr/include/glib-2.0 -I/usr/lib/glib-2.0/include -I/usr/include/sysprof-6 -fdiagnostics-color=always -D_FILE_OFFSET_BITS=64 -Wall -Winvalid-pch -std=gnu99 -O0 -g -pthread -D_REENTRANT -Wno-switch -MD -MQ vulkan.p/3rdparty_miniaudio.c.o -MF vulkan.p/3rdparty_miniaudio.c.o.d -o vulkan.p/3rdparty_miniaudio.c.o -c ../3rdparty/miniaudio.c",
    "file": "../3rdparty/miniaudio.c",
    "output": "vulkan.p/3rdparty_miniaudio.c.o"
  }
]
